------------------------------------------------------------------------
r1072385 | scripty | 2010-01-10 04:13:09 +0000 (Sun, 10 Jan 2010) | 1 line

SVN_SILENT made messages (.desktop file)
------------------------------------------------------------------------
r1076373 | scripty | 2010-01-18 04:09:53 +0000 (Mon, 18 Jan 2010) | 1 line

SVN_SILENT made messages (.desktop file)
------------------------------------------------------------------------
