------------------------------------------------------------------------
r1109772 | scripty | 2010-04-01 15:10:41 +1300 (Thu, 01 Apr 2010) | 1 line

SVN_SILENT made messages (.desktop file)
------------------------------------------------------------------------
r1111558 | scripty | 2010-04-06 13:55:02 +1200 (Tue, 06 Apr 2010) | 1 line

SVN_SILENT made messages (.desktop file)
------------------------------------------------------------------------
r1114963 | scripty | 2010-04-15 13:42:58 +1200 (Thu, 15 Apr 2010) | 1 line

SVN_SILENT made messages (.desktop file)
------------------------------------------------------------------------
r1115603 | scripty | 2010-04-17 13:43:31 +1200 (Sat, 17 Apr 2010) | 1 line

SVN_SILENT made messages (.desktop file)
------------------------------------------------------------------------
r1116666 | scripty | 2010-04-20 14:08:39 +1200 (Tue, 20 Apr 2010) | 1 line

SVN_SILENT made messages (.desktop file)
------------------------------------------------------------------------
r1118540 | scripty | 2010-04-25 13:58:39 +1200 (Sun, 25 Apr 2010) | 1 line

SVN_SILENT made messages (.desktop file)
------------------------------------------------------------------------
r1119954 | scripty | 2010-04-28 13:56:23 +1200 (Wed, 28 Apr 2010) | 1 line

SVN_SILENT made messages (.desktop file)
------------------------------------------------------------------------
